freertos.c:180:6:StartDefaultTask	8	static
freertos.c:195:6:StartTaskA	16	static
freertos.c:211:6:StartTaskB	16	static
freertos.c:76:13:vApplicationIdleHook	0	static
freertos.c:95:13:vApplicationTickHook	16	static
freertos.c:132:6:MX_FREERTOS_Init	80	static
freertos.c:227:6:v_sendto_A_from_ISR	16	static
freertos.c:234:6:v_sendto_A	16	static
